R言語速習
…
グループごとに集計

#' pcr_data を用いた例
#' 医療機関(mi)のPCR件数を各月で集計する
#' 日付の扱いに関数 lubridate::year(), lubridate::month() を利用
pcr_data |>
  group_by(year = year(date), month = month(date)) |> # 年と月でグループ化
  summarise(mi_total = sum(mi)) # mi の合計値を計算する

`summarise()` has grouped output by 'year'. You can override using the `.groups`
argument.
# A tibble: 40 × 3
# Groups:   year [4]
    year month mi_total
   <dbl> <dbl>    <dbl>
 1  2020     2       NA
 2  2020     3       NA
 3  2020     4     8614
 4  2020     5    12283
 5  2020     6    16213
 6  2020     7    29805
 7  2020     8    76416
 8  2020     9    85850
 9  2020    10   118286
10  2020    11   174449
# ℹ 30 more rows
# ℹ Use `print(n = ...)` to see more rows
…
