統計データ解析
…
Files タブの操作で読み込みことも可能である．

ダウンロードしたファイルをファイル名 pcr_case_daily.csv として作業ディレクトリの data 以下に保存しておく．

pcr_data <- read_csv("data/pcr_case_daily.csv") 
print(pcr_data) # 中身の一部を表示

# A tibble: 1,175 × 10
   日付    国立感染症研究所 検疫所 地方衛生研究所・保健…¹ 民間検査会社（主に行…²
   <chr>              <dbl>  <dbl>                  <dbl>                  <dbl>
 1 2020/2…              472     75                    398                      0
 2 2020/2…               15     68                    609                      0
 3 2020/2…               20     15                    758                      0
 4 2020/2…              261    188                    902                    132
 5 2020/2…              341    127                    677                      2
 6 2020/2…               53     72                    529                      0
 7 2020/2…               22    103                    460                     17
 8 2020/2…              195     38                    695                      0
 9 2020/2…              267     19                    970                    149
10 2020/2…              237     61                   1101                      0
# ℹ 1,165 more rows
# ℹ abbreviated names: ¹​`地方衛生研究所・保健所`,
#   ²​`民間検査会社（主に行政検査）`
# ℹ 5 more variables: 大学等 <dbl>, 医療機関 <dbl>, 小計 <dbl>,
#   `民間検査会社（主に自費検査）` <dbl>, 計 <dbl>
…
University

Medical Institution

subtotal

Self Inspection

total

names(pcr_data) <- # 
    c("date","niid","ciq","hc","ai","univ","mi","sub","si","total")
pcr_data # 中身を確認(10行だけ表示される)

# A tibble: 1,175 × 10
   date       niid   ciq    hc    ai  univ    mi   sub    si total
   <chr>     <dbl> <dbl> <dbl> <dbl> <dbl> <dbl> <dbl> <dbl> <dbl>
 1 2020/2/18   472    75   398     0    79    NA  1024    NA  1024
 2 2020/2/19    15    68   609     0     0    NA   692    NA   692
 3 2020/2/20    20    15   758     0     0    NA   793    NA   793
 4 2020/2/21   261   188   902   132   108    NA  1591    NA  1591
 5 2020/2/22   341   127   677     2    19    NA  1166    NA  1166
 6 2020/2/23    53    72   529     0     0    NA   654    NA   654
 7 2020/2/24    22   103   460    17     0    NA   602    NA   602
 8 2020/2/25   195    38   695     0     0    NA   928    NA   928
 9 2020/2/26   267    19   970   149     0    NA  1405    NA  1405
10 2020/2/27   237    61  1101     0     0    NA  1399    NA  1399
# ℹ 1,165 more rows
…
以降の処理のために date 列を関数 lubridate::date() で date 型に変換する． 列の変換・追加などには関数 dplyr::mutate() を用いる．

(pcr_data <- mutate(pcr_data, date = date(date)))

# A tibble: 1,175 × 10
   date        niid   ciq    hc    ai  univ    mi   sub    si total
   <date>     <dbl> <dbl> <dbl> <dbl> <dbl> <dbl> <dbl> <dbl> <dbl>
 1 2020-02-18   472    75   398     0    79    NA  1024    NA  1024
 2 2020-02-19    15    68   609     0     0    NA   692    NA   692
 3 2020-02-20    20    15   758     0     0    NA   793    NA   793
 4 2020-02-21   261   188   902   132   108    NA  1591    NA  1591
 5 2020-02-22   341   127   677     2    19    NA  1166    NA  1166
 6 2020-02-23    53    72   529     0     0    NA   654    NA   654
 7 2020-02-24    22   103   460    17     0    NA   602    NA   602
 8 2020-02-25   195    38   695     0     0    NA   928    NA   928
 9 2020-02-26   267    19   970   149     0    NA  1405    NA  1405
10 2020-02-27   237    61  1101     0     0    NA  1399    NA  1399
# ℹ 1,165 more rows
…
医療機関 (mi) での検査件数が2000を越えたときの国立感染症研究所 (niid) と医療機関 (mi) のデータ．

大学等 (univ) と医療機関 (mi) でともに検査件数が2000を越えたデータ．

2020年3月の各機関(sub,total は集計なので除く)の検査件数データ．

解答例

それぞれ以下のようにすれば条件に合致したデータを抽出することができる．

pcr_data |>            # データフレーム
    filter(mi > 2000) |> # 行の条件による絞り込み
    select(c(niid,mi))   # 列の選択 select(niid,mi) としても良い

# A tibble: 977 × 2
    niid    mi
   <dbl> <dbl>
 1     0  3510
 2     0  2636
 3     0  3459
 4     0  3694
 5     0  3437
 6    83  2579
 7     0  4247
 8    36  3469
 9     0  3725
10    20  3643
# ℹ 967 more rows

pcr_data |>
    filter(univ > 2000 & mi > 2000) # 複合的な条件の指定

# A tibble: 746 × 10
   date        niid   ciq    hc    ai  univ    mi   sub    si total
   <date>     <dbl> <dbl> <dbl> <dbl> <dbl> <dbl> <dbl> <dbl> <dbl>
 1 2020-08-12     0   107  5805 15264  2152  3694 27022    NA 27022
 2 2020-08-17     0    11  3193 14606  2303  4247 24360    NA 24360
 3 2020-08-18    36     4  5631 15884  2322  3469 27346    NA 27346
 4 2020-08-19     0    77  5505 16463  2412  3725 28182    NA 28182
 5 2020-08-20    20    37  4940 17632  2397  3643 28669    NA 28669
 6 2020-08-24     0     3  3123  6599  2482  3454 15661    NA 15661
 7 2020-08-25     0     0  4740 14602  2291  3512 25145    NA 25145
 8 2020-08-26     0   111  4611 16481  2496  3488 27187    NA 27187
 9 2020-08-27    27     0  5183 16751  2071  3412 27444    NA 27444
10 2020-08-31     0     0  2948 16133  2714  4578 26373    NA 26373
# ℹ 736 more rows

pcr_data |>
    filter(date >= "2020-03-01" & date < "2020-04-01") |> # 日付の範囲での指定
    select(!c(sub,total)) # 列の削除は select(-c(sub,total)), select(-sub,-total) も可

# A tibble: 31 × 8
   date        niid   ciq    hc    ai  univ    mi    si
   <date>     <dbl> <dbl> <dbl> <dbl> <dbl> <dbl> <dbl>
 1 2020-03-01     0    22   544   116     0    NA    NA
 2 2020-03-02   125    24  1038    15     0    NA    NA
 3 2020-03-03    20    27  1718    11     0    NA    NA
 4 2020-03-04    71    12  1398     7     0    NA    NA
 5 2020-03-05    83    11  1579     5     0    NA    NA
 6 2020-03-06   107    35  1786     5    62    68    NA
 7 2020-03-07    18    13  1616    11    20    44    NA
 8 2020-03-08     0    10   579     2     8     9    NA
 9 2020-03-09     0    27  1072     4    97    48    NA
10 2020-03-10     8    57  1763    97    65    62    NA
# ℹ 21 more rows
…
