第3講 回帰分析
…
(tw_lm <- lm(tw_formula,                 # 回帰係数の推定
             data = tw_data, 
             subset =  month==9))        # 9月のデータの抽出

Call:
lm(formula = tw_formula, data = tw_data, subset = month == 9)

Coefficients:
(Intercept)        solar        press  
   386.2285       0.3020      -0.3602  

(tw_df <- as_tibble(model.frame(tw_lm))) # 推定に用いたデータフレームの抽出

# A tibble: 30 × 3
    temp solar press
   <dbl> <dbl> <dbl>
 1  29.2 24.0  1012.
 2  29.6 22.1  1010.
 3  29.1 18.6  1011.
 4  26.1  7.48 1008.
 5  29.3 22.6  1005.
 6  27.5 13.2  1004.
 7  27   11.0  1008.
 8  21.9  2.1  1008.
 9  24.8  8.81 1007.
10  27.8 17.6  1009.
# ℹ 20 more rows
…
glance(adv_lm3)  # 推定結果を評価する統計量

# A tibble: 1 × 12
  r.squared adj.r.squared sigma statistic  p.value    df logLik   AIC   BIC
      <dbl>         <dbl> <dbl>     <dbl>    <dbl> <dbl>  <dbl> <dbl> <dbl>
1     0.897         0.896  1.68      860. 4.83e-98     2  -386.  780.  794.
# ℹ 3 more variables: deviance <dbl>, df.residual <int>, nobs <int>

augment(adv_lm3) # 残差やあてはめ値など

# A tibble: 200 × 9
   sales    TV radio .fitted  .resid    .hat .sigma   .cooksd .std.resid
   <dbl> <dbl> <dbl>   <dbl>   <dbl>   <dbl>  <dbl>     <dbl>      <dbl>
 1  22.1 230.   37.8   20.6   1.54   0.0140    1.68 0.00406       0.925 
 2  10.4  44.5  39.3   12.3  -1.95   0.0188    1.68 0.00871      -1.17  
 3   9.3  17.2  45.9   12.3  -3.04   0.0295    1.67 0.0341       -1.83  
 4  18.5 152.   41.3   17.6   0.883  0.0124    1.68 0.00117       0.528 
 5  12.9 181.   10.8   13.2  -0.324  0.00951   1.69 0.000120     -0.194 
 6   7.2   8.7  48.9   12.5  -5.31   0.0347    1.64 0.124        -3.22  
 7  11.8  57.5  32.8   11.7   0.0818 0.0129    1.69 0.0000105     0.0490
 8  13.2 120.   19.6   12.1   1.09   0.00576   1.68 0.000823      0.653 
 9   4.8   8.6   2.1    3.71  1.09   0.0271    1.68 0.00401       0.658 
10  10.6 200.    2.6   12.6  -1.95   0.0171    1.68 0.00797      -1.17  
# ℹ 190 more rows
…
